ciqtype,4g_ptp
ciqversion,1.0.0.0
customer,Airtel
region,CENTRAL
site,Manesar_Site_1
cluster-name,airtel-workload-cluster
namespace,ptp1
chart-name,vdu-ptp
chart-version,0.1.0
chart-repo-url,https://harbor.mgmt1.mwp-mavenir.local/chartrepo/4221
